<?xml version="1.0" encoding="UTF-8"?>
<svg width="1678px" height="388px" viewBox="0 0 1678 388" version="1.1" xmlns="http://www.w3.org/2000/svg" xmlns:xlink="http://www.w3.org/1999/xlink">
    <!-- Generator: Sketch 57.1 (83088) - https://sketch.com -->
    <title>Group 11</title>
    <desc>Created with Sketch.</desc>
    <defs>
        <linearGradient x1="53.5990482%" y1="110.737547%" x2="50%" y2="3.061617e-15%" id="linearGradient-1">
            <stop stop-color="#7001E3" offset="0%"></stop>
            <stop stop-color="#4600CF" offset="100%"></stop>
        </linearGradient>
        <linearGradient x1="57.03125%" y1="110.737547%" x2="50%" y2="3.061617e-15%" id="linearGradient-2">
            <stop stop-color="#7001E3" offset="0%"></stop>
            <stop stop-color="#4600CF" offset="100%"></stop>
        </linearGradient>
        <linearGradient x1="55.0267698%" y1="110.737547%" x2="50%" y2="3.061617e-15%" id="linearGradient-3">
            <stop stop-color="#7001E3" offset="0%"></stop>
            <stop stop-color="#4600CF" offset="100%"></stop>
        </linearGradient>
        <linearGradient x1="100%" y1="75.5550235%" x2="50%" y2="28.9627465%" id="linearGradient-4">
            <stop stop-color="#7001E3" offset="0%"></stop>
            <stop stop-color="#4600CF" offset="100%"></stop>
        </linearGradient>
        <linearGradient x1="100%" y1="59.9507659%" x2="50%" y2="41.80839%" id="linearGradient-5">
            <stop stop-color="#7001E3" offset="0%"></stop>
            <stop stop-color="#4600CF" offset="100%"></stop>
        </linearGradient>
        <linearGradient x1="100%" y1="54.5176688%" x2="50%" y2="46.2809917%" id="linearGradient-6">
            <stop stop-color="#7001E3" offset="0%"></stop>
            <stop stop-color="#4600CF" offset="100%"></stop>
        </linearGradient>
        <linearGradient x1="100%" y1="61.155876%" x2="50%" y2="40.8163265%" id="linearGradient-7">
            <stop stop-color="#7001E3" offset="0%"></stop>
            <stop stop-color="#4600CF" offset="100%"></stop>
        </linearGradient>
        <linearGradient x1="100%" y1="53.7960967%" x2="50%" y2="46.875%" id="linearGradient-8">
            <stop stop-color="#7001E3" offset="0%"></stop>
            <stop stop-color="#4600CF" offset="100%"></stop>
        </linearGradient>
        <linearGradient x1="100%" y1="54.9581671%" x2="50%" y2="45.9183673%" id="linearGradient-9">
            <stop stop-color="#7001E3" offset="0%"></stop>
            <stop stop-color="#4600CF" offset="100%"></stop>
        </linearGradient>
        <linearGradient x1="100%" y1="71.4733183%" x2="50%" y2="32.3228634%" id="linearGradient-10">
            <stop stop-color="#7001E3" offset="0%"></stop>
            <stop stop-color="#4600CF" offset="100%"></stop>
        </linearGradient>
        <linearGradient x1="100%" y1="62.9381757%" x2="50%" y2="39.3491124%" id="linearGradient-11">
            <stop stop-color="#7001E3" offset="0%"></stop>
            <stop stop-color="#4600CF" offset="100%"></stop>
        </linearGradient>
        <linearGradient x1="100%" y1="58.5412176%" x2="50%" y2="42.96875%" id="linearGradient-12">
            <stop stop-color="#7001E3" offset="0%"></stop>
            <stop stop-color="#4600CF" offset="100%"></stop>
        </linearGradient>
        <linearGradient x1="100%" y1="55.4663792%" x2="50%" y2="45.5%" id="linearGradient-13">
            <stop stop-color="#7001E3" offset="0%"></stop>
            <stop stop-color="#4600CF" offset="100%"></stop>
        </linearGradient>
        <linearGradient x1="100%" y1="110.737547%" x2="50%" y2="3.061617e-15%" id="linearGradient-14">
            <stop stop-color="#7001E3" offset="0%"></stop>
            <stop stop-color="#4600CF" offset="100%"></stop>
        </linearGradient>
        <linearGradient x1="71.0372535%" y1="110.737547%" x2="50%" y2="3.061617e-15%" id="linearGradient-15">
            <stop stop-color="#7001E3" offset="0%"></stop>
            <stop stop-color="#4600CF" offset="100%"></stop>
        </linearGradient>
        <linearGradient x1="59.6371208%" y1="110.737547%" x2="50%" y2="3.061617e-15%" id="linearGradient-16">
            <stop stop-color="#7001E3" offset="0%"></stop>
            <stop stop-color="#4600CF" offset="100%"></stop>
        </linearGradient>
        <linearGradient x1="72.8268809%" y1="110.737547%" x2="50%" y2="3.061617e-15%" id="linearGradient-17">
            <stop stop-color="#7001E3" offset="0%"></stop>
            <stop stop-color="#4600CF" offset="100%"></stop>
        </linearGradient>
        <linearGradient x1="53.7190083%" y1="110.737547%" x2="50%" y2="3.061617e-15%" id="linearGradient-18">
            <stop stop-color="#7001E3" offset="0%"></stop>
            <stop stop-color="#4600CF" offset="100%"></stop>
        </linearGradient>
        <linearGradient x1="58.7808438%" y1="94.1681805%" x2="58.7808438%" y2="35.7951491%" id="linearGradient-19">
            <stop stop-color="#7001E3" stop-opacity="0" offset="0%"></stop>
            <stop stop-color="#4600CF" offset="100%"></stop>
        </linearGradient>
        <rect id="path-20" x="0" y="23" width="308" height="218"></rect>
    </defs>
    <g id="Page-1" stroke="none" stroke-width="1" fill="none" fill-rule="evenodd">
        <g id="Plugin-Details-Page---PluginEver" transform="translate(-201.000000, -275.000000)">
            <g id="Header" transform="translate(0.000000, -1.000000)">
                <g id="Group-11" transform="translate(174.000000, 276.000000)">
                    <g id="Group-52" transform="translate(1539.500000, 128.000000) scale(-1, 1) translate(-1539.500000, -128.000000) translate(1374.000000, 0.000000)">
                        <path d="M171,23 C184.660281,97.1524692 233.301265,163.981211 299.255718,201.040933" id="Stroke-1" stroke="#6901E0" stroke-width="1.056"></path>
                        <path d="M174.932689,41 C167.891256,31.7614698 164.330483,19.9294829 165.104197,8.33384026 C165.293937,5.49137791 165.917968,2.34926474 168.234894,0.692744362 C168.871575,0.239047699 169.647398,-0.0795950734 170.42322,0.0174749103 C171.673391,0.173630971 172.544083,1.31947882 173.14914,2.42312233 C176.364166,8.28108483 176.328326,15.3566426 175.590452,21.9974956 C174.854685,28.6404588 175.185675,33.7134206 174.932689,41" id="Fill-3" fill="url(#linearGradient-1)"></path>
                        <path d="M181.394891,63 C178.617868,51.6548384 180.025172,39.3055112 185.278548,28.9050721 C186.566836,26.3553829 188.366681,23.7037911 191.122824,23.0987441 C191.878676,22.9331523 192.709695,22.9501361 193.377851,23.3492548 C194.453164,23.9925153 194.793506,25.3979226 194.912522,26.6610909 C195.53683,33.3526981 192.726399,39.8723447 189.450347,45.7126402 C186.176382,51.5529358 184.485113,56.3699589 181.394891,63" id="Fill-5" fill="url(#linearGradient-2)"></path>
                        <path d="M193.235847,92 C189.01095,81.0972474 188.918871,68.6781618 192.985308,57.7160283 C193.981039,55.026923 195.488554,52.1745204 198.216643,51.2329094 C198.968259,50.9741784 199.816236,50.8872278 200.544298,51.2010982 C201.717761,51.7058356 202.238111,53.0567505 202.514346,54.2931451 C203.974751,60.8504902 201.919049,67.6644454 199.304452,73.8612638 C196.689855,80.0580821 195.563502,85.0439548 193.235847,92" id="Fill-7" fill="url(#linearGradient-3)"></path>
                        <path d="M208.237556,118 C204.010754,107.097247 203.91868,94.6781618 207.98489,83.7139076 C208.980565,81.026923 210.487996,78.1745204 213.218073,77.2329094 C213.967506,76.9741784 214.815436,76.8872278 215.545598,77.2010982 C216.718996,77.7037149 217.239317,79.0567505 217.515536,80.2931451 C218.973719,86.8504902 216.918131,93.6623247 214.30368,99.8612638 C211.691371,106.058082 210.562939,111.043955 208.237556,118" id="Fill-9" fill="url(#linearGradient-3)"></path>
                        <path d="M233.001618,148 C227.976269,137.700041 226.669074,125.488641 229.392229,114.288563 C230.062947,111.542047 231.190881,108.581517 233.65018,107.379261 C234.326941,107.045651 235.112466,106.8736 235.825482,107.108596 C236.973557,107.486268 237.591907,108.764059 237.972585,109.951628 C239.982724,116.258753 238.729912,123.170154 236.895005,129.53393 C235.058084,135.897705 234.496131,140.916549 233.001618,148" id="Fill-11" fill="url(#linearGradient-1)"></path>
                        <path d="M186,72 C174.066395,71.2893559 162.204603,66.2619051 153.257568,58.1149507 C151.063052,56.1174095 148.898106,53.5945211 149.003713,50.7661982 C149.033283,49.9883585 149.261394,49.194229 149.827448,48.6729542 C150.737782,47.8299552 152.216281,47.9215855 153.49624,48.1842592 C160.278329,49.5770402 166.010684,54.2196435 170.953097,59.1065945 C175.89551,63.9955816 180.229627,67.0539984 186,72" id="Fill-15" fill="url(#linearGradient-4)"></path>
                        <path d="M195,95.210943 C183.029647,97.3422889 170.04278,95.1118597 159.149114,89.0530188 C156.477813,87.5667687 153.703356,85.5471551 153.095167,82.6800627 C152.929688,81.8916123 152.953328,81.0357009 153.380994,80.3779561 C154.068699,79.3133373 155.551561,79.0519259 156.881839,79.0097628 C163.935106,78.796839 170.769168,82.0982116 176.883289,85.8359725 C182.99956,89.5716252 188.052037,91.6144286 195,95.210943" id="Fill-17" fill="url(#linearGradient-5)"></path>
                        <path d="M212,121.559035 C200.694334,125.787081 187.499728,126.13473 175.578758,122.51356 C172.654991,121.625349 169.522536,120.260879 168.341411,117.692703 C168.016548,116.989368 167.865949,116.185557 168.149935,115.48825 C168.608186,114.366934 170.008755,113.846466 171.306056,113.561113 C178.177663,112.0399 185.554853,113.844457 192.316738,116.191585 C199.078624,118.536704 204.450698,119.501278 212,121.559035" id="Fill-19" fill="url(#linearGradient-6)"></path>
                        <path d="M201.028572,146.299218 C198.373966,144.725941 195.624089,142.599542 195.078444,139.659601 C194.926876,138.850364 194.972346,137.980865 195.416224,137.315827 C196.13509,136.246171 197.633448,136.013731 198.975908,136.000817 C206.084449,135.938403 212.89202,139.459444 218.967733,143.408778 C225.041281,147.360265 230.084167,149.55984 237,153.382192 C224.894044,155.293369 211.863522,152.725764 201.028572,146.299218 Z" id="Fill-21" fill="url(#linearGradient-7)"></path>
                        <path d="M256,172.287888 C246.14976,179.271439 233.472911,182.741054 221.008379,181.867319 C217.952295,181.652051 214.570229,181.002026 212.766604,178.663623 C212.271197,178.02415 211.919479,177.241165 212.015987,176.464512 C212.1704,175.213002 213.390688,174.35193 214.572374,173.750445 C220.83252,170.576296 228.433054,170.673377 235.576783,171.466915 C242.722657,172.260452 248.167847,171.973428 256,172.287888" id="Fill-23" fill="url(#linearGradient-8)"></path>
                        <path d="M23,137.251389 C83.3042984,134.499134 144.03601,154.471444 192,191" id="Stroke-25" stroke="#6901E0" stroke-width="1.056"></path>
                        <path d="M42,137.288327 C31.1817148,132.495954 18.5776361,131.681398 7.20937831,135.040913 C4.42069355,135.86391 1.43358729,137.178595 0.318544736,139.807964 C0.0122854663,140.531779 -0.127903636,141.363217 0.148161058,142.097583 C0.590295919,143.281432 1.93179779,143.872302 3.17193216,144.214162 C9.74356593,146.035306 16.7810589,144.410415 23.2276008,142.198875 C29.6741428,139.989445 34.8007504,139.172779 42,137.288327" id="Fill-27" fill="url(#linearGradient-9)"></path>
                        <path d="M64,139.007254 C52.2018533,138.800083 40.380136,143.038459 31.3633178,150.703793 C29.1519688,152.581281 26.9577621,155.002594 27.0006177,157.915939 C27.0113316,158.716569 27.2191813,159.54957 27.7655902,160.130081 C28.6462727,161.066667 30.1076487,161.088247 31.3761745,160.917763 C38.1023609,160.017863 43.8664391,155.699639 48.8569737,151.0685 C53.8453656,146.435203 58.1930662,143.634077 64,139.007254" id="Fill-29" fill="url(#linearGradient-10)"></path>
                        <path d="M95,144.466715 C83.3288982,142.827823 71.0948952,145.546505 61.2280734,151.971899 C58.8095249,153.546771 56.339609,155.655137 56.0271239,158.518929 C55.9415116,159.304231 56.0463867,160.149285 56.5172546,160.785209 C57.2770641,161.81165 58.7217722,162.012243 60.0016767,161.999439 C66.7778931,161.93542 73.0168922,158.397292 78.5260461,154.460112 C84.0330596,150.520797 88.6818095,148.299331 95,144.466715" id="Fill-31" fill="url(#linearGradient-11)"></path>
                        <path d="M124,153.466715 C112.328898,151.827823 100.094895,154.546505 90.2280734,160.971899 C87.8073846,162.546771 85.339609,164.655137 85.0271239,167.518929 C84.9415116,168.304231 85.0463867,169.149285 85.5172546,169.785209 C86.2770641,170.81165 87.7217722,171.012243 89.0016767,170.999439 C95.7778931,170.93542 102.016892,167.397292 107.523906,163.460112 C113.030919,159.520797 117.68181,157.299331 124,153.466715" id="Fill-33" fill="url(#linearGradient-11)"></path>
                        <path d="M160,170.391829 C148.653634,167.617862 136.302996,169.028849 125.903576,174.280392 C123.355739,175.568231 120.701743,177.371623 120.098755,180.124717 C119.933145,180.880305 119.950131,181.713121 120.349292,182.381044 C120.992621,183.455982 122.398177,183.796206 123.66148,183.913092 C130.35592,184.535095 136.874136,181.725645 142.715051,178.448648 C148.553844,175.173739 153.371378,173.480972 160,170.391829" id="Fill-35" fill="url(#linearGradient-12)"></path>
                        <path d="M184,184.930485 C173.677977,181.894159 161.666857,182.458723 150.845687,186.488681 C148.1941,187.476154 145.352963,188.907066 144.297805,191.282339 C144.009268,191.93518 143.87869,192.66398 144.144059,193.269603 C144.569492,194.242706 145.850004,194.616344 147.03153,194.78674 C153.2993,195.690041 159.998821,193.587812 166.131801,191.04009 C172.26478,188.490315 177.146733,187.274964 184,184.930485" id="Fill-37" fill="url(#linearGradient-13)"></path>
                        <path d="M76,142 C72.6068039,130.280951 64.8666027,119.662992 54.630039,112.693742 C52.1210152,110.983814 49.0886627,109.427176 46.2567788,110.206575 C45.4781163,110.420316 44.7268863,110.837002 44.3259489,111.525723 C43.6802288,112.631131 44.1022681,114.081979 44.6551396,115.295336 C47.5840925,121.718359 53.5601693,126.323505 59.6037724,130.080164 C65.6494856,133.841141 69.7137243,137.429398 76,142" id="Fill-39" fill="url(#linearGradient-14)"></path>
                        <path d="M98,146 C97.4473562,134.155816 92.4839503,122.320009 84.3002517,113.326388 C82.2932822,111.123014 79.7523675,108.93849 76.8644921,109.001324 C76.0708458,109.018079 75.2564234,109.231715 74.7141676,109.784653 C73.8436498,110.676894 73.9163661,112.143017 74.1656791,113.414356 C75.4911931,120.160619 80.1450354,125.914107 85.0606563,130.88636 C89.9783549,135.860708 93.0365941,140.202528 98,146" id="Fill-41" fill="url(#linearGradient-15)"></path>
                        <path d="M128.408516,156 C130.274208,144.164065 127.682374,131.439483 121.254197,120.868813 C119.679818,118.279041 117.559226,115.598289 114.628954,115.073564 C113.823558,114.929688 112.958185,114.97412 112.298446,115.412096 C111.233866,116.114551 111.006812,117.582934 111.000386,118.892631 C110.957546,125.83889 114.483298,132.482586 118.431025,138.406901 C122.380895,144.3291 124.580741,149.252629 128.408516,156" id="Fill-43" fill="url(#linearGradient-16)"></path>
                        <path d="M163,172 C162.177265,160.017858 156.902943,148.141808 148.436325,139.219388 C146.360597,137.033872 143.745474,134.878063 140.83022,135.005374 C140.030572,135.043568 139.212034,135.276972 138.678935,135.849874 C137.816323,136.770762 137.921263,138.256063 138.202504,139.539789 C139.692663,146.340349 144.519937,152.063005 149.596969,156.989964 C154.671903,161.9148 157.860003,166.243394 163,172" id="Fill-45" fill="url(#linearGradient-17)"></path>
                        <path d="M188.170403,188 C192.666281,176.79467 193.22801,163.633399 189.726432,151.674463 C188.867438,148.743772 187.52257,145.589791 184.925088,144.365986 C184.209602,144.03105 183.39366,143.863582 182.680224,144.136254 C181.528065,144.5721 180.974537,145.961226 180.660871,147.251589 C179.000287,154.08128 180.724425,161.475638 183.008241,168.264535 C185.294107,175.051285 186.192052,180.431733 188.170403,188" id="Fill-47" fill="url(#linearGradient-18)"></path>
                        <g id="Group-51" transform="translate(46.000000, 157.000000)" fill="url(#linearGradient-19)">
                            <path d="M239.856294,15.9328213 C227.884048,4.70790638 210.97291,-1.01934894 194.66469,0.632055319 C183.618881,1.75265106 171.575209,7.66948085 169.142526,18.5299915 C167.987107,23.7032681 168.390453,30.5658638 163.508281,32.5985234 C158.729047,34.5869489 154.113671,29.6516936 149.208391,28.0002894 C141.040626,25.253566 131.721644,34.6164383 134.475743,42.7997362 C135.729898,46.5196085 138.868438,49.7634383 138.607943,53.6813106 C138.252914,59.0167787 131.673326,61.7993106 126.404614,60.9715021 C121.135901,60.1415872 116.482712,57.0557362 111.314836,55.7371404 C106.14486,54.4185447 99.4497296,55.7413532 97.6346708,60.7692894 C96.0065798,65.2790553 98.8152993,71.3349064 95.2839175,74.5660979 C93.7713685,75.9520979 91.582374,76.238566 89.5425336,76.4323532 C44.7836871,80.6914596 -4.50860479,88.7420553 0.499613072,96.7168213 C1.86931024,98.8969277 5.36707985,98.2018213 7.93841318,98.1618 C103.203792,96.6662681 189.742604,95.2402468 284.976471,98.1702255" id="Fill-49"></path>
                        </g>
                    </g>
                    <g id="Group" opacity="0.302780878" transform="translate(0.000000, 83.000000)">
                        <path d="M179,0 C262.948112,0 331,68.2774799 331,152.5 C331,236.72252 262.948112,305 179,305 C95.0518881,305 27,236.72252 27,152.5 C27,68.2774799 95.0518881,0 179,0 Z M179.006269,18.8164054 C105.525026,18.8164054 45.7582338,78.7817076 45.7582338,152.49371 C45.7582338,226.218292 105.528161,286.183595 179.006269,286.183595 C252.471839,286.183595 312.244901,226.212002 312.241766,152.49371 C312.241766,78.7848525 252.474974,18.8164054 179.006269,18.8164054 Z M180.950128,162.384259 L217.562975,264.015703 C217.79979,264.61255 218.089577,265.162029 218.407407,265.679928 C206.036939,270.091547 192.731675,272.523148 178.868649,272.523148 C167.554601,272.523148 156.622837,270.884708 146.256921,267.905484 L145.222222,267.603104 L180.950128,162.384259 Z M69.7541243,103.078704 L126.925926,259.814815 C86.9432985,240.37852 59.3703704,199.356454 59.3703704,151.882819 C59.3703704,134.498726 63.1055111,117.993251 69.7541243,103.078704 Z M284.061785,94.6064815 C293.348629,111.66258 298.632738,131.241215 298.62963,152.067016 C298.62963,195.799411 275.325854,234.043526 240.575064,254.950479 L239.518519,255.578704 L275.829273,149.817102 C282.615575,132.735934 284.864198,119.073507 284.864198,106.921468 C284.864198,102.518782 284.571846,98.4169199 284.061785,94.6064815 Z M179.481632,32.4768519 C210.771737,32.4768519 239.253876,44.4043719 260.62963,63.9292582 C260.107656,63.904174 259.604549,63.8383281 259.069998,63.8383281 C247.265853,63.8383281 238.889123,74.0914802 238.889123,85.1065638 C238.889123,94.9803179 244.599386,103.33648 250.693268,113.207099 C255.265252,121.196405 260.595041,131.449557 260.595041,146.258621 C260.595041,156.34397 256.776201,168.027117 251.712742,184.173133 L251.454218,184.997977 L239.467696,224.938237 L196.033849,96.1216474 C203.269155,95.7391139 209.787534,94.9771824 209.787534,94.9771824 C216.265035,94.2152509 215.50723,84.7303013 209.02344,85.1128348 C209.02344,85.1128348 189.943743,86.6032998 177.367199,86.6331091 L176.631692,86.6331091 C164.792078,86.6032998 145.336396,85.1128348 145.336396,85.1128348 C138.862039,84.7303013 138.107379,94.6009199 144.578592,94.9771824 C144.578592,94.9771824 150.490143,95.712145 156.831964,96.1007981 L157.178275,96.1216474 L175.906429,147.271394 L149.60966,225.925926 L105.855083,96.1247829 C113.096678,95.7422494 119.608768,94.9803179 119.608768,94.9803179 C126.076836,94.2183864 125.322175,84.7271658 118.838385,85.1159704 C118.838385,85.1159704 99.3775816,86.6366978 86.8061981,86.6366978 C84.5422171,86.6366978 81.8914727,86.5771229 79.0740741,86.4924639 C100.553594,53.9551674 137.491073,32.4768519 179.481632,32.4768519 Z" id="Combined-Shape" fill="#000000" fill-rule="nonzero" opacity="0.160202753"></path>
                        <mask id="mask-21" fill="white">
                            <use xlink:href="#path-20"></use>
                        </mask>
                        <use id="Rectangle" fill="#FFFFFF" opacity="0" xlink:href="#path-20"></use>
                    </g>
                </g>
            </g>
        </g>
    </g>
</svg>